%YAML 1.1
%TAG !u! tag:unity3d.com,2011:
--- !u!114 &-2786276965802685647
MonoBehaviour:
  m_ObjectHideFlags: 0
  m_CorrespondingSourceObject: {fileID: 0}
  m_PrefabInstance: {fileID: 0}
  m_PrefabAsset: {fileID: 0}
  m_GameObject: {fileID: 3269867612466685561}
  m_Enabled: 1
  m_EditorHideFlags: 0
  m_Script: {fileID: 11500000, guid: 4e7bf30a8f3fedf41b9f22370da3de50, type: 3}
  m_Name: 
  m_EditorClassIdentifier: 
  healthCurrent: 5
  healthMax: 5
  fDropItem: {fileID: 0}
  GlobalStatHolder: {fileID: 0}
--- !u!114 &3630423008666918206
MonoBehaviour:
  m_ObjectHideFlags: 0
  m_CorrespondingSourceObject: {fileID: 0}
  m_PrefabInstance: {fileID: 0}
  m_PrefabAsset: {fileID: 0}
  m_GameObject: {fileID: 3269867612466685561}
  m_Enabled: 1
  m_EditorHideFlags: 0
  m_Script: {fileID: 11500000, guid: b00ca8721260c674cb82634f8a5e725b, type: 3}
  m_Name: 
  m_EditorClassIdentifier: 
  dashDistance: 100
  cam: {fileID: 0}
--- !u!1001 &6090195459354896243
PrefabInstance:
  m_ObjectHideFlags: 0
  serializedVersion: 2
  m_Modification:
    m_TransformParent: {fileID: 0}
    m_Modifications:
    - target: {fileID: 1520955462321518220, guid: d14ae82ece7e7ac44a6f5261357982eb,
        type: 3}
      propertyPath: healthMax
      value: 10
      objectReference: {fileID: 0}
    - target: {fileID: 1520955462321518220, guid: d14ae82ece7e7ac44a6f5261357982eb,
        type: 3}
      propertyPath: healthCurrent
      value: 10
      objectReference: {fileID: 0}
    - target: {fileID: 8783250469102944522, guid: d14ae82ece7e7ac44a6f5261357982eb,
        type: 3}
      propertyPath: m_Name
      value: PlayerPrefab Variant
      objectReference: {fileID: 0}
    - target: {fileID: 3608712185013831249, guid: d14ae82ece7e7ac44a6f5261357982eb,
        type: 3}
      propertyPath: m_LocalPosition.x
      value: 23
      objectReference: {fileID: 0}
    - target: {fileID: 3608712185013831249, guid: d14ae82ece7e7ac44a6f5261357982eb,
        type: 3}
      propertyPath: m_LocalPosition.y
      value: 1
      objectReference: {fileID: 0}
    - target: {fileID: 3608712185013831249, guid: d14ae82ece7e7ac44a6f5261357982eb,
        type: 3}
      propertyPath: m_LocalPosition.z
      value: 15
      objectReference: {fileID: 0}
    - target: {fileID: 3608712185013831249, guid: d14ae82ece7e7ac44a6f5261357982eb,
        type: 3}
      propertyPath: m_LocalRotation.x
      value: -0
      objectReference: {fileID: 0}
    - target: {fileID: 3608712185013831249, guid: d14ae82ece7e7ac44a6f5261357982eb,
        type: 3}
      propertyPath: m_LocalRotation.y
      value: -0
      objectReference: {fileID: 0}
    - target: {fileID: 3608712185013831249, guid: d14ae82ece7e7ac44a6f5261357982eb,
        type: 3}
      propertyPath: m_LocalRotation.z
      value: -0
      objectReference: {fileID: 0}
    - target: {fileID: 3608712185013831249, guid: d14ae82ece7e7ac44a6f5261357982eb,
        type: 3}
      propertyPath: m_LocalRotation.w
      value: 1
      objectReference: {fileID: 0}
    - target: {fileID: 3608712185013831249, guid: d14ae82ece7e7ac44a6f5261357982eb,
        type: 3}
      propertyPath: m_RootOrder
      value: 0
      objectReference: {fileID: 0}
    - target: {fileID: 3608712185013831249, guid: d14ae82ece7e7ac44a6f5261357982eb,
        type: 3}
      propertyPath: m_LocalEulerAnglesHint.x
      value: 0
      objectReference: {fileID: 0}
    - target: {fileID: 3608712185013831249, guid: d14ae82ece7e7ac44a6f5261357982eb,
        type: 3}
      propertyPath: m_LocalEulerAnglesHint.y
      value: 0
      objectReference: {fileID: 0}
    - target: {fileID: 3608712185013831249, guid: d14ae82ece7e7ac44a6f5261357982eb,
        type: 3}
      propertyPath: m_LocalEulerAnglesHint.z
      value: 0
      objectReference: {fileID: 0}
    m_RemovedComponents: []
  m_SourcePrefab: {fileID: 100100000, guid: d14ae82ece7e7ac44a6f5261357982eb, type: 3}
--- !u!1 &3269867612466685561 stripped
GameObject:
  m_CorrespondingSourceObject: {fileID: 8783250469102944522, guid: d14ae82ece7e7ac44a6f5261357982eb,
    type: 3}
  m_PrefabInstance: {fileID: 6090195459354896243}
  m_PrefabAsset: {fileID: 0}
