%YAML 1.1
%TAG !u! tag:unity3d.com,2011:
--- !u!1001 &883686485916950567
PrefabInstance:
  m_ObjectHideFlags: 0
  serializedVersion: 2
  m_Modification:
    m_TransformParent: {fileID: 0}
    m_Modifications:
    - target: {fileID: 1520955462321518220, guid: d14ae82ece7e7ac44a6f5261357982eb,
        type: 3}
      propertyPath: healthMax
      value: 20
      objectReference: {fileID: 0}
    - target: {fileID: 8783250469102944522, guid: d14ae82ece7e7ac44a6f5261357982eb,
        type: 3}
      propertyPath: m_Name
      value: PlagueDoctorPrefab Variant
      objectReference: {fileID: 0}
    - target: {fileID: 3608712185013831249, guid: d14ae82ece7e7ac44a6f5261357982eb,
        type: 3}
      propertyPath: m_LocalPosition.x
      value: 33.174725
      objectReference: {fileID: 0}
    - target: {fileID: 3608712185013831249, guid: d14ae82ece7e7ac44a6f5261357982eb,
        type: 3}
      propertyPath: m_LocalPosition.y
      value: 0
      objectReference: {fileID: 0}
    - target: {fileID: 3608712185013831249, guid: d14ae82ece7e7ac44a6f5261357982eb,
        type: 3}
      propertyPath: m_LocalPosition.z
      value: 14.109557
      objectReference: {fileID: 0}
    - target: {fileID: 3608712185013831249, guid: d14ae82ece7e7ac44a6f5261357982eb,
        type: 3}
      propertyPath: m_LocalRotation.x
      value: -0
      objectReference: {fileID: 0}
    - target: {fileID: 3608712185013831249, guid: d14ae82ece7e7ac44a6f5261357982eb,
        type: 3}
      propertyPath: m_LocalRotation.y
      value: -0
      objectReference: {fileID: 0}
    - target: {fileID: 3608712185013831249, guid: d14ae82ece7e7ac44a6f5261357982eb,
        type: 3}
      propertyPath: m_LocalRotation.z
      value: -0
      objectReference: {fileID: 0}
    - target: {fileID: 3608712185013831249, guid: d14ae82ece7e7ac44a6f5261357982eb,
        type: 3}
      propertyPath: m_LocalRotation.w
      value: 1
      objectReference: {fileID: 0}
    - target: {fileID: 3608712185013831249, guid: d14ae82ece7e7ac44a6f5261357982eb,
        type: 3}
      propertyPath: m_RootOrder
      value: 0
      objectReference: {fileID: 0}
    - target: {fileID: 3608712185013831249, guid: d14ae82ece7e7ac44a6f5261357982eb,
        type: 3}
      propertyPath: m_LocalEulerAnglesHint.x
      value: 0
      objectReference: {fileID: 0}
    - target: {fileID: 3608712185013831249, guid: d14ae82ece7e7ac44a6f5261357982eb,
        type: 3}
      propertyPath: m_LocalEulerAnglesHint.y
      value: 0
      objectReference: {fileID: 0}
    - target: {fileID: 3608712185013831249, guid: d14ae82ece7e7ac44a6f5261357982eb,
        type: 3}
      propertyPath: m_LocalEulerAnglesHint.z
      value: 0
      objectReference: {fileID: 0}
    m_RemovedComponents: []
  m_SourcePrefab: {fileID: 100100000, guid: d14ae82ece7e7ac44a6f5261357982eb, type: 3}
