%YAML 1.1
%TAG !u! tag:unity3d.com,2011:
--- !u!1 &764971515065492570
GameObject:
  m_ObjectHideFlags: 0
  m_CorrespondingSourceObject: {fileID: 0}
  m_PrefabInstance: {fileID: 0}
  m_PrefabAsset: {fileID: 0}
  serializedVersion: 6
  m_Component:
  - component: {fileID: 764971515065492568}
  - component: {fileID: 764971515065492569}
  m_Layer: 0
  m_Name: Spawner
  m_TagString: Untagged
  m_Icon: {fileID: 0}
  m_NavMeshLayer: 0
  m_StaticEditorFlags: 0
  m_IsActive: 1
--- !u!4 &764971515065492568
Transform:
  m_ObjectHideFlags: 0
  m_CorrespondingSourceObject: {fileID: 0}
  m_PrefabInstance: {fileID: 0}
  m_PrefabAsset: {fileID: 0}
  m_GameObject: {fileID: 764971515065492570}
  m_LocalRotation: {x: 0, y: 0, z: 0, w: 1}
  m_LocalPosition: {x: 22.2, y: 13.33, z: 25.3}
  m_LocalScale: {x: 1, y: 1, z: 1}
  m_Children: []
  m_Father: {fileID: 0}
  m_RootOrder: 0
  m_LocalEulerAnglesHint: {x: 0, y: 0, z: 0}
--- !u!114 &764971515065492569
MonoBehaviour:
  m_ObjectHideFlags: 0
  m_CorrespondingSourceObject: {fileID: 0}
  m_PrefabInstance: {fileID: 0}
  m_PrefabAsset: {fileID: 0}
  m_GameObject: {fileID: 764971515065492570}
  m_Enabled: 1
  m_EditorHideFlags: 0
  m_Script: {fileID: 11500000, guid: ec7f983c42b44b24dad6f5ce9ec96f13, type: 3}
  m_Name: 
  m_EditorClassIdentifier: 
  active: 0
  activeDistanceMax: 100
  activeDistanceMin: 0
  interval: 0.1
  ratioNothing: 0
  distanceToPlayer: 0
  player: {fileID: 5124616471328140713, guid: 4282865e636d6d14ca4c772dce5a8239, type: 3}
  spawnRidden: 1
  ratioRidden: 2
  prefabRidden: {fileID: 8021712203771909479, guid: 356406733312a574eae11e86fe26c21b,
    type: 3}
  spawnPlagueDoctor: 1
  ratioPlagueDoctor: 1
  prefabPlagueDoctor: {fileID: 6271260715299538791, guid: d68856dd473a1594f99e3c0c830550b8,
    type: 3}
  GlobalStatHolder: {fileID: 0}
