%YAML 1.1
%TAG !u! tag:unity3d.com,2011:
--- !u!114 &-4220590912436329970
MonoBehaviour:
  m_ObjectHideFlags: 0
  m_CorrespondingSourceObject: {fileID: 0}
  m_PrefabInstance: {fileID: 0}
  m_PrefabAsset: {fileID: 0}
  m_GameObject: {fileID: 5124616471328140713}
  m_Enabled: 1
  m_EditorHideFlags: 0
  m_Script: {fileID: 11500000, guid: b00ca8721260c674cb82634f8a5e725b, type: 3}
  m_Name: 
  m_EditorClassIdentifier: 
  dashDistance: 20
  cam: {fileID: 0}
--- !u!1001 &4408307167067674510
PrefabInstance:
  m_ObjectHideFlags: 0
  serializedVersion: 2
  m_Modification:
    m_TransformParent: {fileID: 0}
    m_Modifications:
    - target: {fileID: 8805451534189050407, guid: 393100fdf8740b14390dac24df81de47,
        type: 3}
      propertyPath: m_Name
      value: Player
      objectReference: {fileID: 0}
    - target: {fileID: 8805451534189050407, guid: 393100fdf8740b14390dac24df81de47,
        type: 3}
      propertyPath: m_TagString
      value: Player
      objectReference: {fileID: 0}
    - target: {fileID: 8805451534189050407, guid: 393100fdf8740b14390dac24df81de47,
        type: 3}
      propertyPath: m_Layer
      value: 9
      objectReference: {fileID: 0}
    - target: {fileID: 9035695412645797023, guid: 393100fdf8740b14390dac24df81de47,
        type: 3}
      propertyPath: m_LocalPosition.x
      value: 24.466
      objectReference: {fileID: 0}
    - target: {fileID: 9035695412645797023, guid: 393100fdf8740b14390dac24df81de47,
        type: 3}
      propertyPath: m_LocalPosition.y
      value: 1
      objectReference: {fileID: 0}
    - target: {fileID: 9035695412645797023, guid: 393100fdf8740b14390dac24df81de47,
        type: 3}
      propertyPath: m_LocalPosition.z
      value: 15.384853
      objectReference: {fileID: 0}
    - target: {fileID: 9035695412645797023, guid: 393100fdf8740b14390dac24df81de47,
        type: 3}
      propertyPath: m_LocalRotation.x
      value: 0
      objectReference: {fileID: 0}
    - target: {fileID: 9035695412645797023, guid: 393100fdf8740b14390dac24df81de47,
        type: 3}
      propertyPath: m_LocalRotation.y
      value: 0
      objectReference: {fileID: 0}
    - target: {fileID: 9035695412645797023, guid: 393100fdf8740b14390dac24df81de47,
        type: 3}
      propertyPath: m_LocalRotation.z
      value: 0
      objectReference: {fileID: 0}
    - target: {fileID: 9035695412645797023, guid: 393100fdf8740b14390dac24df81de47,
        type: 3}
      propertyPath: m_LocalRotation.w
      value: 1
      objectReference: {fileID: 0}
    - target: {fileID: 9035695412645797023, guid: 393100fdf8740b14390dac24df81de47,
        type: 3}
      propertyPath: m_RootOrder
      value: 0
      objectReference: {fileID: 0}
    - target: {fileID: 9035695412645797023, guid: 393100fdf8740b14390dac24df81de47,
        type: 3}
      propertyPath: m_LocalEulerAnglesHint.x
      value: 0
      objectReference: {fileID: 0}
    - target: {fileID: 9035695412645797023, guid: 393100fdf8740b14390dac24df81de47,
        type: 3}
      propertyPath: m_LocalEulerAnglesHint.y
      value: 0
      objectReference: {fileID: 0}
    - target: {fileID: 9035695412645797023, guid: 393100fdf8740b14390dac24df81de47,
        type: 3}
      propertyPath: m_LocalEulerAnglesHint.z
      value: 0
      objectReference: {fileID: 0}
    m_RemovedComponents: []
  m_SourcePrefab: {fileID: 100100000, guid: 393100fdf8740b14390dac24df81de47, type: 3}
--- !u!1 &5124616471328140713 stripped
GameObject:
  m_CorrespondingSourceObject: {fileID: 8805451534189050407, guid: 393100fdf8740b14390dac24df81de47,
    type: 3}
  m_PrefabInstance: {fileID: 4408307167067674510}
  m_PrefabAsset: {fileID: 0}
